{
  "properties": [
    {
      "name": "actual.security.browser.login-page",
      "type": "java.lang.String",
      "description": "default login page.html."
    },
    {
      "name": "actual.security.jwt.secret",
      "type": "java.lang.String",
      "description": "JWT secret"
    },

    {
      "name": "actual.security.jwt.expiration-second",
      "type": "java.lang.Long",
      "description": "JWT expire times"
    },

    {
      "name": "actual.security.jwt.claim-name",
      "type": "java.lang.String",
      "description": "JWT Payload claim"
    },

    {
      "name" : "actual.security.jwt.token-cache-key-prefix",
      "type": "java.lang.String",
      "description": "JWT Cache key"
    }
  ]
}